{
  "version": "1.0.0-*",
  "description": "Attendance.DAL Class Library",
  "authors": [ "J" ],
  "tags": [ "" ],
  "projectUrl": "",
  "licenseUrl": "",
  "frameworks": {
    
    
    "net451": {
      "dependencies": {
        "Microsoft.CSharp": "4.0.1-beta-23516",
        "System.Collections": "4.0.11-beta-23516",
        "System.Linq": "4.0.1-beta-23516",
        "System.Runtime": "4.0.21-beta-23516",
        "System.Threading": "4.0.11-beta-23516"
      }
    }
  },
  "dependencies": {
    "EntityFramework": "6.1.3"
  }
}
